…
```r
activity$date <- as.POSIXct(as.character(activity$date))
```
Then, the data is grouped by the date.

```r
activity <- tbl_df(activity)
activity <- group_by(activity, date)
activity
```

```
## # A tibble: 17,568 x 3
## # Groups:   date [61]
##    steps date                interval
##    <int> <dttm>                 <int>
##  1    NA 2012-10-01 00:00:00        0
##  2    NA 2012-10-01 00:00:00        5
##  3    NA 2012-10-01 00:00:00       10
##  4    NA 2012-10-01 00:00:00       15
##  5    NA 2012-10-01 00:00:00       20
##  6    NA 2012-10-01 00:00:00       25
##  7    NA 2012-10-01 00:00:00       30
##  8    NA 2012-10-01 00:00:00       35
##  9    NA 2012-10-01 00:00:00       40
## 10    NA 2012-10-01 00:00:00       45
## # ... with 17,558 more rows
```
…
## What is the average daily activity pattern?
### Processing
The step averages by interval are computed using the base `tapply` function. The result is stored in a data frame `averages` along with the corresponding intervals.

```r
averages <- tbl_df(data.frame(interval = unique(activity$interval),
                              average = tapply(activity$steps, activity$interval,
                              FUN = mean, na.rm = TRUE)))
averages
```

```
## # A tibble: 288 x 2
##    interval average
##  *    <int>   <dbl>
##  1        0  1.72  
##  2        5  0.340 
##  3       10  0.132 
##  4       15  0.151 
##  5       20  0.0755
##  6       25  2.09  
##  7       30  0.528 
##  8       35  0.868 
##  9       40  0     
## 10       45  1.47  
## # ... with 278 more rows
```
…
### Processing
The imputing will be done as per a mean basis. The `NA` values in the dataset are found and then replaced with the average value for that interval. Note how the average values for each interval are already stored in `averages`. The imputed values are stored in a new dataset, `myactivity`.


```r
myactivity <- activity
myactivity$steps <- with(activity, unlist(mapply(impute, steps, interval)))
myactivity
```

```
## # A tibble: 17,568 x 3
## # Groups:   date [61]
##     steps date                interval
##     <dbl> <dttm>                 <int>
##  1 1.72   2012-10-01 00:00:00        0
##  2 0.340  2012-10-01 00:00:00        5
##  3 0.132  2012-10-01 00:00:00       10
##  4 0.151  2012-10-01 00:00:00       15
##  5 0.0755 2012-10-01 00:00:00       20
##  6 2.09   2012-10-01 00:00:00       25
##  7 0.528  2012-10-01 00:00:00       30
##  8 0.868  2012-10-01 00:00:00       35
##  9 0      2012-10-01 00:00:00       40
## 10 1.47   2012-10-01 00:00:00       45
## # ... with 17,558 more rows
```
…
### Processing
The entire list of dates from the new datasets are processed with the help of the `checkDay` funtion and is returned as a factor into a new column called `day`.


```r
myactivity$day <- with(myactivity, factor(sapply(date, checkDay)))
myactivity
```

```
## # A tibble: 17,568 x 4
## # Groups:   date [61]
##     steps date                interval day    
##     <dbl> <dttm>                 <int> <fct>  
##  1 1.72   2012-10-01 00:00:00        0 Weekday
##  2 0.340  2012-10-01 00:00:00        5 Weekday
##  3 0.132  2012-10-01 00:00:00       10 Weekday
##  4 0.151  2012-10-01 00:00:00       15 Weekday
##  5 0.0755 2012-10-01 00:00:00       20 Weekday
##  6 2.09   2012-10-01 00:00:00       25 Weekday
##  7 0.528  2012-10-01 00:00:00       30 Weekday
##  8 0.868  2012-10-01 00:00:00       35 Weekday
##  9 0      2012-10-01 00:00:00       40 Weekday
## 10 1.47   2012-10-01 00:00:00       45 Weekday
## # ... with 17,558 more rows
```

The average values of steps are then stored in a data frame `averages`, computed by type of day.


```r
averages <- summarise(group_by(myactivity, day, interval), steps = mean(steps))
averages
```

```
## # A tibble: 576 x 3
## # Groups:   day [?]
##    day     interval  steps
##    <fct>      <int>  <dbl>
##  1 Weekday        0 2.25  
##  2 Weekday        5 0.445 
##  3 Weekday       10 0.173 
##  4 Weekday       15 0.198 
##  5 Weekday       20 0.0990
##  6 Weekday       25 1.59  
##  7 Weekday       30 0.693 
##  8 Weekday       35 1.14  
##  9 Weekday       40 0     
## 10 Weekday       45 1.80  
## # ... with 566 more rows
```
…
